graph {
  rankdir="LR";
  node [shape="rectangle"; width=3; fontname="Arial"];
  labeljust="l";
 "KNOWLEDGE, is either" -- { "Natural and Scientifical,
which is either" "Artificial and Technical,
(consisting in the Application
of Natural Notices to further
Purposes) which is either" }
"Natural and Scientifical,
which is either" -- { "Sensible; consisting in ther
Perception of Phaenomena, or
External Objects—called
PHYSIOLOGY, or NATURAL
HISTORY; and which according
to the different Kinds of such
Objects, divides into" "Rational; consisting in the
Perception of the intrinsick
Characters or Habitutes of
sensible Objects—either" }
"Sensible; consisting in ther
Perception of Phaenomena, or
External Objects—called
PHYSIOLOGY, or NATURAL
HISTORY; and which according
to the different Kinds of such
Objects, divides into" -- { "METEOROLOGY." "HYDROLOGY." "MINEROLOGY." "PHYTOLOGY." "ZOOLOGY." }

"Rational; consisting in the
Perception of the intrinsick
Characters or Habitutes of
sensible Objects—either" -- { "Their Powers and
Properties—called PHYSICKS
and NATURAL PHILOSOPHY." "Abstracts thereof—called
METAPHYSICS—which subdivides
into" "Quantities thereof—called
MATHEMATICS—which divides,
according to the Subject of
the Quantity, into" "Relations thereof to our
Happiness—called RELIGION,
or the Doctrine of OFFICES,
which subdivides into—" }
"Abstracts thereof—called
METAPHYSICS—which subdivides
into" -- { "ONTOLOGY." "PNEUMATOLOGY." }

"Quantities thereof—called
MATHEMATICS—which divides,
according to the Subject of
the Quantity, into" -- { "ARITHMIC" "GEOMETRY" "STATICS" }
"ARITHMIC" -- { "ANALYTICS." "ALGEBRA." }

"GEOMETRY" -- { "TRIGONOMETRY." "CONIGS." "SPHERICS." }

"Relations thereof to our
Happiness—called RELIGION,
or the Doctrine of OFFICES,
which subdivides into—" -- { "ETHICS, or NATURAL
RELIGION—whence" "THEOLOGY, or RELEVATION." }
"ETHICS, or NATURAL
RELIGION—whence" -- { "POLITICS." "LAW." }

"Artificial and Technical,
(consisting in the Application
of Natural Notices to further
Purposes) which is either" -- { "Internal; employ'd in
discovering their Agreement
and Disagreement; or their
Relations in respect of
Truth—call'd LOGICS." "External, which is either—" }
"External, which is either—" -- { "Real, employ'd in discovering
and applying the—" "Symbolical, employ'd in
framing" }
"Real, employ'd in discovering
and applying the—" -- { "Futher Powers and Properties
of Bodies—called
CHYMISTRY—whence" "Quantities of Bodies—call'd
MIX'D MATHEMATICS; which
according to the different
Subjects resolves into" "Structure and Oeconomy of
Organical Bodies—called
ANATOMY." "Relations thereof to the
Preservation and
Improvement—either of" }
"Futher Powers and Properties
of Bodies—called
CHYMISTRY—whence" -- { "ALCHEMY." "NATURAL MAGIC, etc." }

"Quantities of Bodies—call'd
MIX'D MATHEMATICS; which
according to the different
Subjects resolves into" -- { "OPTICS, CATOPTRICS,
DIOPTRICS—whence" "PHONIC—whence" "HYDROSTATICS, HYDRAULICS." "PNEUMATICS." "MECHANICS—whence" "PYROTECHNIA—whence" "ASTRONOMY—whence" "GEOGRAPHY,
HYDROGRAPHY—whence" }
"OPTICS, CATOPTRICS,
DIOPTRICS—whence" -- { "PERSPECTIVE." "PAINTING." }

"PHONIC—whence" -- { "MUSICK." }

"MECHANICS—whence" -- { "ARCHITECTURE." "SCULPTURE." "TRADES, and MANUFACTURES." }

"PYROTECHNIA—whence" -- { "THE MILLITARY Art." "FORTIFICATION." }

"ASTRONOMY—whence" -- { "CHRONOLOGY." "DIALLING." }

"GEOGRAPHY,
HYDROGRAPHY—whence" -- { "NAVIGATION." "COMMERCE." }

"Relations thereof to the
Preservation and
Improvement—either of" -- { "Animals—called" "Vegetables—called" "Brutes—called" }
"Animals—called" -- { "MEDICINE." "PHARMACY." }

"Vegetables—called" -- { "AGRICULTURE." "GARDENING." }

"Brutes—called" -- { "FARRYING, MANAGE—whence" }
"FARRYING, MANAGE—whence" -- { "HUNTING." "FALCONRY." "FISHING, etc." }

"Symbolical, employ'd in
framing" -- { "Words, or Articulate Signs of
Ideas—called GRAMMAR." "Figures—called
RHETORIC—whence" "Fables—called POETRY." }
"Figures—called
RHETORIC—whence" -- { "The making of Armories, called
HERALDRY." }
 
}